{
    "main_title": "Branding Guidelines UII",
    "main_list":[
        {
            "sub_title" : "Panduan Penggunaan Merek",
            "list":[
                {
                    "media_title" : "Lorem Ipsum",
                    "url_media" : "Lorem Ipsum",
                }
            ]
        },
        {
            "sub_title" : "Logo UII & Supergraphic",
            "list":[
                {
                    "media_title" : "Lorem Ipsum 1",
                    "url_media" : "Lorem Ipsum",
                },
                {
                    "media_title" : "Lorem Ipsum 2",
                    "url_media" : "Lorem Ipsum",
                },
                {
                    "media_title" : "Lorem Ipsum 3",
                    "url_media" : "Lorem Ipsum",
                }
            ]
        },
        {
            "sub_title" : "Slide Power Point Official UII",
            "list":[
                {
                    "media_title" : "Lorem Ipsum 1",
                    "url_media" : "Lorem Ipsum",
                },
                {
                    "media_title" : "Lorem Ipsum 2",
                    "url_media" : "Lorem Ipsum",
                }
            ]
        },
        {
            "sub_title" : "Video & Slide Profile UII",
            "list":[
                {
                    "media_title" : "Lorem Ipsum 1",
                    "url_media" : "Lorem Ipsum",
                },
                {
                    "media_title" : "Lorem Ipsum 1",
                    "url_media" : "Lorem Ipsum",
                }
            ]
        },
        {
            "sub_title" : "Himne dan Mars UII",
            "list":[
                {
                    "media_title" : "Lorem Ipsum",
                    "url_media" : "Lorem Ipsum",
                },
                {
                    "media_title" : "Lorem Ipsum",
                    "url_media" : "Lorem Ipsum",
                }
            ]
        }
    ]
}